{
  "interactionModel": {
    "languageModel": {
      "invocationName": "jarvis crane",
      "types": [

      ],
      "intents": [
        {
          "name": "AMAZON.CancelIntent",
          "samples": [

          ]
        },
        {
          "name": "AMAZON.HelpIntent",
          "samples": [

          ]
        },
        {
          "name": "AMAZON.StopIntent",
          "samples": [

          ]
        },
        {
          "name": "NextTideIntent",
          "slots": [

          ],
          "samples": [
            "about the next tide",
            "for the next tide",
            "when is the next tide",
            "when the next tide is",
            "next tide"
          ]
        }
      ]
    }
  }
}
